111111111111111111111
1RRRRRRRRRRRRRRRRRRR1
100000000000000000001
100000000000000000001
100FFF0000000FFF00001
10000F0000P0000F00001
10000FFF0000000FFF001
100000000000000000001
100000000000000000001
1RRRRRRRRRRRRRRRRRRR1
111111111111111111111