111111111111111111111
1    0    0    0    1
1    0    0    0    1
1    0    0    0    1
1    0    0    0    1
1000000000P0000000001
1    0    0    0    1
1    0    0    0    1
1    0    0    0    1
1    0    0    0    1
111111111111111111111
