111111111111111111111
10000000000000 000001
100FFFF0000000 000001
100FFFF0000000 000001
10000000000000 000001
10000     P    000001
10000 000000000000001
10000 00000FFFF000001
10000 00000FFFF000001
10000 000000000000001
111111111111111111111