111111111111111111111
1WWWW0000000000000001
1WWWW000000R000R00001
1WWWWWWWWWWW000WWWWW1
10000000000R000R000W1
1000000000P00000000W1
1000R000R0000000000W1
1WWWW000WWWWWW00000W1
1000R000R0000W00000W1
1000000000000WWWWWWW1
111111111111111111111